{
    "KPackageStructure": "Plasma/Applet",
    "KPlugin": {
        "Authors": [
            {
                "Email": "jesperht@yahoo.com",
                "Name": "Jesper Thomschutz",
                "Name[ar]": "Jesper Thomschutz",
                "Name[az]": "Jesper Thomschutz",
                "Name[bg]": "Jesper Thomschutz",
                "Name[ca@valencia]": "Jesper Thomschutz",
                "Name[ca]": "Jesper Thomschutz",
                "Name[cs]": "Jesper Thomschutz",
                "Name[de]": "Jesper Thomschutz",
                "Name[en_GB]": "Jesper Thomschutz",
                "Name[eo]": "Jesper Thomschutz",
                "Name[es]": "Jesper Thomschutz",
                "Name[eu]": "Jesper Thomschutz",
                "Name[fi]": "Jesper Thomschutz",
                "Name[fr]": "Jesper Thomschutz",
                "Name[gl]": "Jesper Thomschutz",
                "Name[ia]": "Jesper Thomschutz",
                "Name[id]": "Jesper Thomschutz",
                "Name[is]": "Jesper Thomschutz",
                "Name[it]": "Jesper Thomschutz",
                "Name[ja]": "Jesper Thomschutz",
                "Name[ka]": "Jesper Thomschutz",
                "Name[ko]": "Jesper Thomschutz",
                "Name[lt]": "Jesper Thomschutz",
                "Name[nl]": "Jesper Thomschutz",
                "Name[nn]": "Jesper Thomschutz",
                "Name[pl]": "Jesper Thomschutz",
                "Name[pt]": "Jesper Thomschutz",
                "Name[pt_BR]": "Jesper Thomschutz",
                "Name[ro]": "Jesper Thomschutz",
                "Name[ru]": "Jesper Thomschutz",
                "Name[sk]": "Jesper Thomschutz",
                "Name[sl]": "Jesper Thomschutz",
                "Name[sv]": "Jesper Thomschutz",
                "Name[tr]": "Jesper Thomschutz",
                "Name[uk]": "Jesper Thomschutz",
                "Name[vi]": "Jesper Thomschutz",
                "Name[x-test]": "xxJesper Thomschutzxx",
                "Name[zh_CN]": "Jesper Thomschutz",
                "Name[zh_TW]": "Jesper Thomschutz"
            }
        ],
        "Category": "Fun and Games",
        "Description": "Put the pieces in order",
        "Description[ar]": "ضع القطع في مكانها الصحيح",
        "Description[az]": "Hissələri cərgə ilə düzün",
        "Description[bg]": "Подредете парчетата правилно",
        "Description[ca@valencia]": "Poseu les peces en ordre",
        "Description[ca]": "Poseu les peces en ordre",
        "Description[cs]": "Zkuste dílky správně poskládat",
        "Description[de]": "Bringen Sie die Teile in die richtige Reihenfolge",
        "Description[en_GB]": "Put the pieces in order",
        "Description[eo]": "Meti la pecojn en ordo",
        "Description[es]": "Colocar las fichas en orden",
        "Description[eu]": "Piezak ordenan ipini",
        "Description[fi]": "Järjestä palaset",
        "Description[fr]": "Mettre les pièces dans l'ordre",
        "Description[gl]": "Poña as pezas en orde",
        "Description[ia]": "Pone le pecias in ordine",
        "Description[id]": "Masukkan potongan-potongan dalam urutan",
        "Description[is]": "Raðr hlutunum á sinn stað",
        "Description[it]": "Rimetti i pezzi in ordine",
        "Description[ja]": "ピースを正しい順序に並べるパズルです",
        "Description[ka]": "ნაწილების რიგში დალაგება",
        "Description[ko]": "조각을 순서대로 맞춰 보세요",
        "Description[lt]": "Surinkite dėlionę",
        "Description[nl]": "Zet de stukken in de juiste volgorde",
        "Description[nn]": "Flytt brikkene i rett rekkjefølgje",
        "Description[pl]": "Puzzle do układania",
        "Description[pt]": "Colocar as peças por ordem",
        "Description[pt_BR]": "Coloque as peças em ordem",
        "Description[ro]": "Potriviți piesele",
        "Description[ru]": "Головоломка: расположите клеточки по порядку",
        "Description[sk]": "Zoraďte jednotlivé časti",
        "Description[sl]": "Postavi delčke v red",
        "Description[sv]": "Placera brickorna i ordning",
        "Description[tr]": "Parçaları sıraya koy",
        "Description[uk]": "Спробуйте впорядкувати плитки",
        "Description[vi]": "Đảo các ô về đúng thứ tự",
        "Description[x-test]": "xxPut the pieces in orderxx",
        "Description[zh_CN]": "按顺序排列板块的小游戏",
        "Description[zh_TW]": "把磁磚整理整齊",
        "Icon": "fifteenpuzzle",
        "Id": "org.kde.plasma.fifteenpuzzle",
        "License": "GPL-2.0+",
        "Name": "Fifteen Puzzle",
        "Name[ar]": "أحجية الخمسة عشر",
        "Name[az]": "On beş tapmaca",
        "Name[bg]": "Fifteen Puzzle",
        "Name[ca@valencia]": "Trencaclosques quinze",
        "Name[ca]": "Trencaclosques quinze",
        "Name[cs]": "Hra Patnáct",
        "Name[de]": "Fünfzehn Steine",
        "Name[en_GB]": "Fifteen Puzzle",
        "Name[eo]": "Dek kvin Puzlo",
        "Name[es]": "Rompecabezas «Quince»",
        "Name[eu]": "Hamabosteko buruhaustekoa",
        "Name[fi]": "Viisitoista-peli",
        "Name[fr]": "Puzzle à 15 pièces",
        "Name[gl]": "Quebracabezas de quince pezas",
        "Name[ia]": "Dece-cinque puzzle",
        "Name[id]": "Fifteen Puzzle",
        "Name[is]": "Fimmtán púsl",
        "Name[it]": "Il gioco del quindici",
        "Name[ja]": "15 ピースパズル",
        "Name[ka]": "15 პაზლი",
        "Name[ko]": "열다섯 조각 퍼즐",
        "Name[lt]": "Penkiolika dalių",
        "Name[nl]": "Vijftien-puzzel",
        "Name[nn]": "Spelet femten",
        "Name[pl]": "Piętnaście puzzli",
        "Name[pt]": "Puzzle dos Quinze",
        "Name[pt_BR]": "Quebra-cabeça quinze",
        "Name[ro]": "Fifteen Puzzle",
        "Name[ru]": "Пятнашки",
        "Name[sk]": "Hlavolam pätnástka",
        "Name[sl]": "Fifteen Puzzle",
        "Name[sv]": "Femtonspel",
        "Name[tr]": "Onbeşli Yapboz",
        "Name[uk]": "Гра у п’ятнашки",
        "Name[vi]": "Trò chơi đảo ô",
        "Name[x-test]": "xxFifteen Puzzlexx",
        "Name[zh_CN]": "十五格拼图",
        "Name[zh_TW]": "十五數字推盤遊戲",
        "Version": "1.0",
        "Website": "https://kde.org/plasma-desktop/"
    },
    "X-KDE-ParentApp": "",
    "X-Plasma-API": "declarativeappletscript",
    "X-Plasma-MainScript": "ui/main.qml",
    "X-Plasma-StandAloneApp": true
}
